<?xml version="1.0" encoding="utf-8"?>
<!-- Generator: Adobe Illustrator 15.0.0, SVG Export Plug-In . SVG Version: 6.00 Build 0)  -->
<!DOCTYPE svg PUBLIC "-//W3C//DTD SVG 1.1//EN" "http://www.w3.org/Graphics/SVG/1.1/DTD/svg11.dtd">
<svg version="1.1" id="Layer_1" xmlns="http://www.w3.org/2000/svg" xmlns:xlink="http://www.w3.org/1999/xlink" x="0px" y="0px"
	 width="595.279px" height="841.89px" viewBox="0 0 595.279 841.89" enable-background="new 0 0 595.279 841.89"
	 xml:space="preserve">
<path fill="#284A5E" d="M202.184,634.181L8.718,440.714c-11.623-11.623-11.623-30.468,0-42.092l42.091-42.093
	c11.623-11.625,30.47-11.625,42.093,0L223.23,486.857l279.148-279.148c11.623-11.623,30.47-11.623,42.093,0l42.092,42.093
	c11.623,11.623,11.623,30.469,0,42.093L244.277,634.183C232.653,645.806,213.807,645.806,202.184,634.181L202.184,634.181z"/>
</svg>
